[gd_scene load_steps=5 format=2]

[ext_resource path="res://entities/player/umbrella.png" type="Texture" id=1]
[ext_resource path="res://entities/components/umbrella/Umbrella.gd" type="Script" id=2]
[ext_resource path="res://entities/components/umbrella/UmbrellaPhysics.gd" type="Script" id=3]

[sub_resource type="Animation" id=1]

resource_name = "falling"
length = 0.36
loop = true
step = 0.12
tracks/0/type = "value"
tracks/0/path = NodePath(".:frame")
tracks/0/interp = 1
tracks/0/loop_wrap = true
tracks/0/imported = false
tracks/0/enabled = true
tracks/0/keys = {
"times": PoolRealArray( 0, 0.12, 0.24 ),
"transitions": PoolRealArray( 1, 1, 1 ),
"update": 1,
"values": [ 1, 2, 3 ]
}

[node name="umbrella_sprite" type="Sprite"]

position = Vector2( 8, -16 )
texture = ExtResource( 1 )
hframes = 4
frame = 2
script = ExtResource( 2 )
_sections_unfolded = [ "Animation", "Offset", "Transform" ]
__meta__ = {
"_edit_lock_": true
}

[node name="umbrella_animations" type="AnimationPlayer" parent="." index="0"]

root_node = NodePath("..")
autoplay = ""
playback_process_mode = 1
playback_default_blend_time = 0.0
playback_speed = 1.0
anims/falling = SubResource( 1 )
blend_times = [  ]

[node name="UmbrellaPhysics" type="Node" parent="." index="1"]

script = ExtResource( 3 )
terminal_hor_speed = 100.0
terminal_ver_speed = 150.0
acceleration = 5.0
deceleration = 5.0
drag = 0.95
up = Vector2( 0, -1 )
priority = 2


