[gd_scene load_steps=2 format=2]

[ext_resource path="res://entities/collectables/SuperJump/super_jump_buff.gd" type="Script" id=1]

[node name="super_jump_buff" type="Node"]

script = ExtResource( 1 )

[node name="Timer" type="Timer" parent="." index="0"]

process_mode = 1
wait_time = 1.0
one_shot = false
autostart = false

[connection signal="timeout" from="Timer" to="." method="_on_Timer_timeout"]


