[gd_scene load_steps=2 format=2]

[sub_resource type="GDScript" id=1]

script/source = "extends KinematicBody2D

const ENTITY = preload(\"res://entities/Entity.gd\")

func _ready():
	ENTITY.init(self)

func get_component(type):
	return ENTITY.get_component(self, type)

func _kill():
	ENTITY.die(self)
"

[node name="Entity" type="KinematicBody2D"]

input_pickable = false
collision_layer = 1
collision_mask = 1
collision/safe_margin = 0.08
script = SubResource( 1 )


