[gd_scene load_steps=5 format=2]

[ext_resource path="res://entities/components/collectable/Collectable.tscn" type="PackedScene" id=1]
[ext_resource path="res://entities/collectables/Keys/key.gd" type="Script" id=2]
[ext_resource path="res://entities/collectables/Keys/key.png" type="Texture" id=3]

[sub_resource type="RectangleShape2D" id=1]

custom_solver_bias = 0.0
extents = Vector2( 3.54199, 10 )

[node name="key" instance=ExtResource( 1 )]

[node name="Collectable_Shape" type="CollisionShape2D" parent="." index="0"]

shape = SubResource( 1 )

[node name="key_attributes" type="Node2D" parent="." index="1"]

script = ExtResource( 2 )

[node name="Sprite" type="Sprite" parent="key_attributes" index="0"]

texture = ExtResource( 3 )

[node name="KeyCounter" type="Label" parent="key_attributes" index="1"]

modulate = Color( 0.964844, 0.950416, 0.0414581, 1 )
anchor_left = 0.0
anchor_top = 0.0
anchor_right = 0.0
anchor_bottom = 0.0
margin_left = -20.0
margin_top = -24.0
margin_right = 20.0
margin_bottom = -10.0
rect_pivot_offset = Vector2( 0, 0 )
rect_clip_content = false
mouse_filter = 2
mouse_default_cursor_shape = 0
size_flags_horizontal = 1
size_flags_vertical = 4
align = 1
valign = 1
percent_visible = 1.0
lines_skipped = 0
max_lines_visible = -1
_sections_unfolded = [ "Material", "Visibility" ]

[node name="Timer" type="Timer" parent="key_attributes" index="2"]

process_mode = 1
wait_time = 1.0
one_shot = false
autostart = false

[connection signal="collected" from="." to="key_attributes" method="_on_key_collected"]

[connection signal="timeout" from="key_attributes/Timer" to="key_attributes" method="_on_Timer_timeout"]


