[gd_scene load_steps=2 format=2]

[ext_resource path="res://entities/player/player.png" type="Texture" id=1]

[node name="player_sprite" type="Sprite"]

texture = ExtResource( 1 )
__meta__ = {
"_edit_lock_": true
}


