[gd_scene load_steps=4 format=2]

[ext_resource path="res://entities/platform/platform.gd" type="Script" id=1]
[ext_resource path="res://entities/platform/nine_patch.png" type="Texture" id=2]

[sub_resource type="RectangleShape2D" id=1]

custom_solver_bias = 0.0
extents = Vector2( 32, 8 )

[node name="Platform" type="KinematicBody2D" index="0"]

input_pickable = false
collision_layer = 1
collision_mask = 30
collision/safe_margin = 0.08
script = ExtResource( 1 )
_sections_unfolded = [ "Collision" ]
size = Vector2( 64, 16 )

[node name="CollisionShape2D" type="CollisionShape2D" parent="." index="0"]

shape = SubResource( 1 )
one_way_collision = true

[node name="NinePatchRect" type="NinePatchRect" parent="." index="1"]

anchor_left = 0.0
anchor_top = 0.0
anchor_right = 0.0
anchor_bottom = 0.0
margin_left = -32.0
margin_top = -8.0
margin_right = 32.0
margin_bottom = 8.0
rect_min_size = Vector2( 16, 16 )
rect_pivot_offset = Vector2( 0, 0 )
rect_clip_content = false
mouse_filter = 2
mouse_default_cursor_shape = 0
size_flags_horizontal = 1
size_flags_vertical = 1
texture = ExtResource( 2 )
patch_margin_left = 8
patch_margin_top = 8
patch_margin_right = 8
patch_margin_bottom = 8
_sections_unfolded = [ "Patch Margin", "Rect", "Visibility" ]


