[gd_scene load_steps=4 format=2]

[ext_resource path="res://entities/goals/basic_goal/goal.gd" type="Script" id=1]
[ext_resource path="res://entities/goals/basic_goal/goal.png" type="Texture" id=2]

[sub_resource type="CircleShape2D" id=1]

custom_solver_bias = 0.0
radius = 11.0756

[node name="goal" type="Area2D" index="0"]

input_pickable = true
gravity_vec = Vector2( 0, 1 )
gravity = 98.0
linear_damp = 0.1
angular_damp = 1.0
audio_bus_override = false
audio_bus_name = "Master"
script = ExtResource( 1 )

[node name="Sprite" type="Sprite" parent="." index="0"]

texture = ExtResource( 2 )

[node name="CollisionShape2D" type="CollisionShape2D" parent="." index="1"]

shape = SubResource( 1 )

[connection signal="body_entered" from="." to="." method="_on_goal_body_entered"]


